{
  "current_page": 1,
  "data": [
    {
      "id": 1,
      "name": "Castles Route",
      "description": "The Castles Route takes you past some beautiful castles and historic estates. Enjoy the green surroundings and discover the rich history of the region.",
      "city": "Gavere",
      "zip": 9890,
      "geo_location": {
        "coordinates": [
          50.92986,
          3.655442
        ]
      },
      "distance": 10,
      "duration": 120,
      "terrain": "paved area",
      "reviews": [
        {
          "user": "Alice",
          "comment": "Very nice and interesting walk. Also doable with children. The alternation of history and culture with nature is very nice.",
          "rating": 4,
          "date": "2023-02-06"
        },
        {
          "user": "Bob",
          "comment": "Too bad not everything was feasible with a wheelchair while it says here that it is a paved walk.",
          "rating": 2,
          "date": "2023-06-07"
        }
      ],
      "images": [
        "https://source.unsplash.com/random/800x600/?sig=1&walk",
        "https://source.unsplash.com/random/800x600/?sig=2&walk",
        "https://source.unsplash.com/random/800x600/?sig=3&walk",
        "https://source.unsplash.com/random/800x600/?sig=4&walk",
        "https://source.unsplash.com/random/800x600/?sig=5&walk",
        "https://source.unsplash.com/random/800x600/?sig=6&walk"
      ],
      "theme": {
        "id": 5,
        "name": "Countryside"
      },
      "difficulty": {
        "id": 1,
        "name": "Easy"
      }
    },
    {
      "id": 2,
      "name": "Historical City Walk",
      "description": "The Historical City Walk takes you through the beautiful streets and alleys of Ghent. Discover the rich history and admire the historic buildings and monuments.",
      "city": "Ghent",
      "zip": 9000,
      "geo_location": {
        "coordinates": [
          51.049508,
          3.729964
        ]
      },
      "distance": 5,
      "duration": 90,
      "terrain": "paved area",
      "reviews": [],
      "images": [
        "https://source.unsplash.com/random/800x600/?sig=7&walk",
        "https://source.unsplash.com/random/800x600/?sig=8&walk",
        "https://source.unsplash.com/random/800x600/?sig=9&walk",
        "https://source.unsplash.com/random/800x600/?sig=10&walk",
        "https://source.unsplash.com/random/800x600/?sig=11&walk",
        "https://source.unsplash.com/random/800x600/?sig=12&walk"
      ],
      "theme": {
        "id": 1,
        "name": "City"
      },
      "difficulty": {
        "id": 2,
        "name": "Average"
      }
    },
    {
      "id": 3,
      "name": "Nature Park Brielmeersen",
      "description": "The Nature Park route takes you through the beautiful Brielmeersen nature park and green landscapes around Deinze. Enjoy the tranquillity and discover the diversity of flora and fauna.",
      "city": "Deinze",
      "zip": 9800,
      "geo_location": {
        "coordinates": [
          50.980176,
          3.52238
        ]
      },
      "distance": 20,
      "duration": 180,
      "terrain": "flat",
      "reviews": [
        {
          "user": "Kristof",
          "comment": "A relaxing experience! The hiking trails in Brielmeersen Nature Park are well maintained and offer an excellent opportunity to escape the hustle and bustle of everyday life. The park has a varied environment with lush green areas, picturesque ponds and an abundance of flora and fauna. A perfect place for nature lovers and photographers!",
          "rating": 5,
          "date": "2023-03-16"
        },
        {
          "user": "Tine",
          "comment": "Family-friendly walks! Brielmeersen Nature Park is ideal for families looking for a fun and educational day in nature. There are special child-friendly trails with information boards describing local animals and plants. Children can enjoy the playgrounds and interactive zones, while parents can enjoy the peaceful surroundings.",
          "rating": 5,
          "date": "2023-01-22"
        },
        {
          "user": "Sara",
          "comment": "A paradise for bird lovers! If you are a bird lover, a walk in Brielmeersen Nature Park is an absolute must. The park is home to a wide variety of bird species, including waterbirds, songbirds and birds of prey. There are viewpoints and observation huts scattered throughout the park, allowing you to get a closer look at the birds. Don't forget your binoculars!",
          "rating": 5,
          "date": "2023-02-20"
        }
      ],
      "images": [
        "https://source.unsplash.com/random/800x600/?sig=13&walk",
        "https://source.unsplash.com/random/800x600/?sig=14&walk",
        "https://source.unsplash.com/random/800x600/?sig=15&walk",
        "https://source.unsplash.com/random/800x600/?sig=16&walk",
        "https://source.unsplash.com/random/800x600/?sig=17&walk",
        "https://source.unsplash.com/random/800x600/?sig=18&walk"
      ],
      "theme": {
        "id": 4,
        "name": "Park"
      },
      "difficulty": {
        "id": 2,
        "name": "Average"
      }
    },
    {
      "id": 4,
      "name": "City Walk",
      "description": "The City Walk leads you through the picturesque streets of Maldegem. Discover the town's historic buildings, bridges and lively atmosphere.",
      "city": "Maldegem",
      "zip": 9990,
      "geo_location": {
        "coordinates": [
          51.208938,
          3.447632
        ]
      },
      "distance": 5,
      "duration": 90,
      "terrain": "paved area",
      "reviews": [
        {
          "user": "Martijn",
          "comment": "The city walk in Maldegem is a fascinating exploration through charming streets and historic squares. You will be amazed by the beautiful architecture and rich history this city has to offer. Highly recommended for lovers of culture and history!",
          "rating": 5,
          "date": "2023-08-08"
        }
      ],
      "images": [
        "https://source.unsplash.com/random/800x600/?sig=19&walk",
        "https://source.unsplash.com/random/800x600/?sig=20&walk",
        "https://source.unsplash.com/random/800x600/?sig=21&walk",
        "https://source.unsplash.com/random/800x600/?sig=22&walk",
        "https://source.unsplash.com/random/800x600/?sig=23&walk",
        "https://source.unsplash.com/random/800x600/?sig=24&walk"
      ],
      "theme": {
        "id": 1,
        "name": "City"
      },
      "difficulty": {
        "id": 1,
        "name": "Easy"
      }
    },
    {
      "id": 5,
      "name": "Old bare valley",
      "description": "The Old bare valley walking route takes you through the flat country fields of Merendree and Lovendegem. In wet weather, be sure to provide appropriate footwear. Through the fields meanders the stream Old bare(Oude Kale in Dutch). This was once a river connected to the Poekebeek and the Durme, which thus flowed into the Scheldt.",
      "city": "Vinderhoute",
      "zip": 9921,
      "geo_location": {
        "coordinates": [
          51.0869,
          3.64128
        ]
      },
      "distance": 8,
      "duration": 100,
      "terrain": "boggy",
      "reviews": [
        {
          "user": "Tom",
          "comment": "An enchanting walk along the Old bare Valley in Vinderhoute. Beautiful scenery, babbling brooks and serene tranquillity make this route perfect for nature lovers.",
          "rating": 4,
          "date": "2023-10-10"
        },
        {
          "user": "Frederik",
          "comment": "A scenic hike. Breathtaking views, lush green surroundings and a feeling of total relaxation. A great escape from the hustle and bustle of everyday life.",
          "rating": 4,
          "date": "2023-07-10"
        },
        {
          "user": "Claudia",
          "comment": "A lovely walk , the paths are well maintained and the route is well marked. Enjoy the natural beauty and listen to the soothing sound of running water.",
          "rating": 3,
          "date": "2023-03-12"
        },
        {
          "user": "Stijn",
          "comment": "A disappointing hike along the Old bare Valley. The paths were muddy and poorly maintained, making it difficult to walk. Moreover, there were few interesting sights along the route. Not worth the effort.",
          "rating": 1,
          "date": "2023-11-30"
        }
      ],
      "images": [
        "https://source.unsplash.com/random/800x600/?sig=25&walk",
        "https://source.unsplash.com/random/800x600/?sig=26&walk",
        "https://source.unsplash.com/random/800x600/?sig=27&walk",
        "https://source.unsplash.com/random/800x600/?sig=28&walk",
        "https://source.unsplash.com/random/800x600/?sig=29&walk",
        "https://source.unsplash.com/random/800x600/?sig=30&walk"
      ],
      "theme": {
        "id": 2,
        "name": "Forests"
      },
      "difficulty": {
        "id": 3,
        "name": "Difficult"
      }
    },
    {
      "id": 6,
      "name": "Roger Raveel Walking Route",
      "description": "A short 3.7-kilometre walk through the village of Machelen-aan-de-Leie. This hike focuses on the artist Roger Raveel.  You start at the Roger Raveel Museum, with a nearby car park. During this walk, you will discover beautiful spots where you can see the works of the painter Roger Raveel.",
      "city": "Machelen-aan-de-Leie",
      "zip": 9870,
      "geo_location": {
        "coordinates": [
          50.960111,
          3.485643
        ]
      },
      "distance": 3.7,
      "duration": 45,
      "terrain": "unpaved area",
      "reviews": [
        {
          "user": "Marie",
          "comment": "The hiking trail is a true artistic discovery. The trail is a real artistic discovery. It is a unique and inspiring walking experience, combining beautiful works of art with picturesque landscapes.",
          "rating": 4,
          "date": "2023-05-10"
        },
        {
          "user": "Dieter",
          "comment": "A cultural gem! The Roger Raveel Walking Route in Machelen-on-the-Lys offers a fascinating mix of art and nature. An absolute must-visit for art lovers who want to enjoy a refreshing walk.",
          "rating": 5,
          "date": "2024-01-06"
        }
      ],
      "images": [
        "https://source.unsplash.com/random/800x600/?sig=31&walk",
        "https://source.unsplash.com/random/800x600/?sig=32&walk",
        "https://source.unsplash.com/random/800x600/?sig=33&walk",
        "https://source.unsplash.com/random/800x600/?sig=34&walk",
        "https://source.unsplash.com/random/800x600/?sig=35&walk",
        "https://source.unsplash.com/random/800x600/?sig=36&walk"
      ],
      "theme": {
        "id": 5,
        "name": "countryside"
      },
      "difficulty": {
        "id": 1,
        "name": "Easy"
      }
    },
    {
      "id": 7,
      "name": "Green Belt",
      "description": "The Green Belt walk takes you through the beautiful green countryside around Brussels. Enjoy the quiet paths, forests and parks while escaping the hustle and bustle of the city.",
      "city": "Brussels",
      "zip": 1000,
      "geo_location": {
        "coordinates": [
          50.841078,
          4.266855
        ]
      },
      "distance": 15,
      "duration": 180,
      "terrain": "paved area",
      "reviews": [
        {
          "user": "Sophie",
          "comment": "A beautiful walk around Brussels with lots of greenery and nature. Perfect to escape the city bustle for a while and enjoy the fresh air.",
          "rating": 3,
          "date": "2023-07-12"
        },
        {
          "user": "Thomas",
          "comment": "The Green Belt walk is a great way to enjoy the nature around Brussels. The paths are well maintained and there are many beautiful places to discover. Highly recommended for hiking enthusiasts!",
          "rating": 4,
          "date": "2023-07-12"
        }
      ],
      "images": [
        "https://source.unsplash.com/random/800x600/?sig=37&walk",
        "https://source.unsplash.com/random/800x600/?sig=38&walk",
        "https://source.unsplash.com/random/800x600/?sig=39&walk",
        "https://source.unsplash.com/random/800x600/?sig=40&walk",
        "https://source.unsplash.com/random/800x600/?sig=41&walk",
        "https://source.unsplash.com/random/800x600/?sig=42&walk"
      ],
      "theme": {
        "id": 2,
        "name": "Forests"
      },
      "difficulty": {
        "id": 2,
        "name": "Average"
      }
    },
    {
      "id": 8,
      "name": "Dunes Walk",
      "description": "The Dunes Walk takes you through the beautiful dune landscapes of De Panne. Enjoy the vast sand dunes, fresh sea air and views of the North Sea.",
      "city": "De Panne",
      "zip": 8660,
      "geo_location": {
        "coordinates": [
          51.091884,
          2.595952
        ]
      },
      "distance": 10,
      "duration": 120,
      "terrain": "unpaved area",
      "reviews": [
        {
          "user": "Lotte",
          "comment": "A fantastic walk through the dunes of De Panne. The view of the sea and the sand dunes is breathtaking. Highly recommended for nature lovers!",
          "rating": 5,
          "date": "2023-10-26"
        },
        {
          "user": "Jan",
          "comment": "Beautiful nature, refreshing walk and the ideal location for a day by the sea. The dune walk in De Panne is highly recommended!",
          "rating": 4,
          "date": "2023-11-10"
        }
      ],
      "images": [
        "https://source.unsplash.com/random/800x600/?sig=43&walk",
        "https://source.unsplash.com/random/800x600/?sig=44&walk",
        "https://source.unsplash.com/random/800x600/?sig=45&walk",
        "https://source.unsplash.com/random/800x600/?sig=46&walk",
        "https://source.unsplash.com/random/800x600/?sig=47&walk",
        "https://source.unsplash.com/random/800x600/?sig=48&walk"
      ],
      "theme": {
        "id": 3,
        "name": "Coast"
      },
      "difficulty": {
        "id": 2,
        "name": "Average"
      }
    },
    {
      "id": 9,
      "name": "Sonian Forest",
      "description": "The walk through the Sonian Forest offers an escape from the hustle and bustle of the city and takes you into the serene beauty of this beautiful forest area. Enjoy the quiet paths, dense forests and rich biodiversity.",
      "city": "Tervuren",
      "zip": 3080,
      "geo_location": {
        "coordinates": [
          50.806431,
          4.502043
        ]
      },
      "distance": 12,
      "duration": 150,
      "terrain": "unpaved area",
      "reviews": [],
      "images": [
        "https://source.unsplash.com/random/800x600/?sig=49&walk",
        "https://source.unsplash.com/random/800x600/?sig=50&walk",
        "https://source.unsplash.com/random/800x600/?sig=51&walk",
        "https://source.unsplash.com/random/800x600/?sig=52&walk",
        "https://source.unsplash.com/random/800x600/?sig=53&walk",
        "https://source.unsplash.com/random/800x600/?sig=54&walk"
      ],
      "theme": {
        "id": 2,
        "name": "Forests"
      },
      "difficulty": {
        "id": 2,
        "name": "Average"
      }
    },
    {
      "id": 10,
      "name": "Coastal Path",
      "description": "The Coastal Path is a scenic walking route along Ostend's beautiful coastline. Enjoy the view of the sea, the fresh sea air and the lively atmosphere of the city.",
      "city": "Ostend",
      "zip": 8400,
      "geo_location": {
        "coordinates": [
          51.234467,
          2.914587
        ]
      },
      "distance": 20,
      "duration": 180,
      "terrain": "paved area",
      "reviews": [
        {
          "user": "Emma",
          "comment": "A breathtaking walk along the coast of Ostend. The views are simply spectacular, especially at sunset. A perfect place to relax and enjoy the beauty of the sea.",
          "rating": 5,
          "date": "2023-10-26"
        },
        {
          "user": "Jasper",
          "comment": "The Coastal Path offers a fantastic walking experience with stunning views of the North Sea. The route is well maintained and there are plenty of places to rest and enjoy the scenery. Highly recommended for beach lovers!",
          "rating": 4,
          "date": "2023-04-17"
        }
      ],
      "images": [
        "https://source.unsplash.com/random/800x600/?sig=55&walk",
        "https://source.unsplash.com/random/800x600/?sig=56&walk",
        "https://source.unsplash.com/random/800x600/?sig=57&walk",
        "https://source.unsplash.com/random/800x600/?sig=58&walk",
        "https://source.unsplash.com/random/800x600/?sig=59&walk",
        "https://source.unsplash.com/random/800x600/?sig=60&walk"
      ],
      "theme": {
        "id": 3,
        "name": "Coast"
      },
      "difficulty": {
        "id": 2,
        "name": "Average"
      }
    },
    {
      "id": 11,
      "name": "Heuvelland",
      "description": "The Heuvelland walk takes you through the rolling countryside around Ypres. Discover the beautiful hills, picturesque villages and historical sights.",
      "city": "Ypres",
      "zip": 8900,
      "geo_location": {
        "coordinates": [
          50.784718,
          2.864119
        ]
      },
      "distance": 15,
      "duration": 120,
      "terrain": "unpaved area",
      "reviews": [
        {
          "user": "Laura",
          "comment": "A beautiful and challenging walking route through the Heuvelland region. The scenery is breathtaking and there are many interesting sights along the way. Make sure you take plenty of time to enjoy the views!",
          "rating": 4,
          "date": "2023-09-02"
        },
        {
          "user": "Ruben",
          "comment": "Heuvelland is a great place to hike. The route offers a mix of natural beauty and historical sites. The hills can be challenging at times, but the views are absolutely worth it.",
          "rating": 5,
          "date": "2023-06-14"
        }
      ],
      "images": [
        "https://source.unsplash.com/random/800x600/?sig=61&walk",
        "https://source.unsplash.com/random/800x600/?sig=62&walk",
        "https://source.unsplash.com/random/800x600/?sig=63&walk",
        "https://source.unsplash.com/random/800x600/?sig=64&walk",
        "https://source.unsplash.com/random/800x600/?sig=65&walk",
        "https://source.unsplash.com/random/800x600/?sig=66&walk"
      ],
      "theme": {
        "id": 5,
        "name": "countryside"
      },
      "difficulty": {
        "id": 3,
        "name": "Difficult"
      }
    },
    {
      "id": 12,
      "name": "Kalmthoutse Heide",
      "description": "The walk through the Kalmthoutse Heide takes you through a beautiful nature reserve with vast heathlands, forests and fens. Enjoy the tranquillity and discover the unique flora and fauna.",
      "city": "Kalmthout",
      "zip": 2920,
      "geo_location": {
        "coordinates": [
          51.386298,
          4.443273
        ]
      },
      "distance": 10,
      "duration": 120,
      "terrain": "unpaved area",
      "reviews": [
        {
          "user": "Kelly",
          "comment": "A great hike for adventurous nature lovers. The Kalmthoutse Heide offers beautiful surroundings and the route offers plenty of challenge. Just make sure you wear good walking shoes!",
          "rating": 3,
          "date": "2023-05-04"
        },
        {
          "user": "Ken",
          "comment": "The hike was a unique experience. The scenery is breathtaking and the route is well laid out. It is the perfect way to explore the natural beauty of the Kalmthoutse Heide.",
          "rating": 4,
          "date": "2023-10-05"
        }
      ],
      "images": [
        "https://source.unsplash.com/random/800x600/?sig=67&walk",
        "https://source.unsplash.com/random/800x600/?sig=68&walk",
        "https://source.unsplash.com/random/800x600/?sig=69&walk",
        "https://source.unsplash.com/random/800x600/?sig=70&walk",
        "https://source.unsplash.com/random/800x600/?sig=71&walk",
        "https://source.unsplash.com/random/800x600/?sig=72&walk"
      ],
      "theme": {
        "id": 2,
        "name": "Forests"
      },
      "difficulty": {
        "id": 2,
        "name": "Average"
      }
    },
    {
      "id": 13,
      "name": "howest hike",
      "description": "Test hike with errors",
      "city": "",
      "zip": 2920,
      "geo_location": {
        "coordinates": [
          51.386298,
          4.443273
        ]
      },
      "distance": 100,
      "duration": 0,
      "terrain": "unpaved area",
      "reviews": [
      ],
      "images": [
      ],
      "theme": {
        "id": 2,
        "name": "Forests"
      },
      "difficulty": {
        "id": 1,
        "name": "Average"
      }
    }
  ],
  "first_page_url": "walks?page=1",
  "from": 1,
  "last_page": 2,
  "last_page_url": "walks?page=2",
  "next_page_url": "walks?page=2",
  "path": "walks",
  "per_page": 12,
  "prev_page_url": null,
  "up to": 12,
  "total": 15
}
